^C:\USERS\BEN XIONG\SOURCE\REPOS\BMX.MADLIB\MAIN.CPP
C:\USERS\BEN XIONG\SOURCE\REPOS\BMX.MADLIB\DEBUG\VC142.PDB
C:\USERS\BEN XIONG\SOURCE\REPOS\BMX.MADLIB\DEBUG\VC142.IDB
C:\USERS\BEN XIONG\SOURCE\REPOS\BMX.MADLIB\DEBUG\MAIN.OBJ
